…
### Data loading

First read in your gene expression file. You can do that with
`read_csv()`. Minimally it should contain the gene ID, the log fold
change and the $p$-value.

``` r
library(readr)
library(dplyr)

gene_expression <- read_csv(system.file("extdata","sample_gene_expression.csv", package="mogo"))
gene_expression
#> # A tibble: 132 × 3
#>    gene_id   log2fc  p.adj
#>    <chr>      <dbl>  <dbl>
#>  1 MGG_16981  3.53  0.291 
#>  2 MGG_04557  1.51  0.217 
#>  3 MGG_03894 -7.03  0.255 
#>  4 MGG_09290 -7.19  0.377 
#>  5 MGG_01448  2.11  0.174 
#>  6 MGG_09589 -3.04  0.183 
#>  7 MGG_03476 -0.341 0.199 
#>  8 MGG_16442  3.60  0.0434
#>  9 MGG_01048 -3.36  0.309 
#> 10 MGG_14883 -4.93  0.157 
#> # ℹ 122 more rows
```
…
